<?xml version="1.0" encoding="UTF-8" standalone="no"?>
<!-- Created with Inkscape (http://www.inkscape.org/) -->
<svg
   xmlns:dc="http://purl.org/dc/elements/1.1/"
   xmlns:cc="http://creativecommons.org/ns#"
   xmlns:rdf="http://www.w3.org/1999/02/22-rdf-syntax-ns#"
   xmlns:svg="http://www.w3.org/2000/svg"
   xmlns="http://www.w3.org/2000/svg"
   xmlns:xlink="http://www.w3.org/1999/xlink"
   xmlns:sodipodi="http://sodipodi.sourceforge.net/DTD/sodipodi-0.dtd"
   xmlns:inkscape="http://www.inkscape.org/namespaces/inkscape"
   width="300"
   height="100"
   id="svg2"
   sodipodi:version="0.32"
   inkscape:version="0.46"
   version="1.0"
   sodipodi:docname="GUILogo.svg"
   inkscape:output_extension="org.inkscape.output.svg.inkscape"
   inkscape:export-filename="/data/user/stevencrc/documents/projects/LANWakeup/gui/GUILogo.png"
   inkscape:export-xdpi="90"
   inkscape:export-ydpi="90">
  <defs
     id="defs4">
    <linearGradient
       id="linearGradient3155">
      <stop
         style="stop-color:#000000;stop-opacity:1;"
         offset="0"
         id="stop3157" />
      <stop
         style="stop-color:#6a6666;stop-opacity:1;"
         offset="1"
         id="stop3159" />
    </linearGradient>
    <inkscape:perspective
       sodipodi:type="inkscape:persp3d"
       inkscape:vp_x="0 : 526.18109 : 1"
       inkscape:vp_y="0 : 1000 : 0"
       inkscape:vp_z="744.09448 : 526.18109 : 1"
       inkscape:persp3d-origin="372.04724 : 350.78739 : 1"
       id="perspective10" />
    <linearGradient
       inkscape:collect="always"
       xlink:href="#linearGradient3155"
       id="linearGradient3163"
       x1="148.57143"
       y1="5.7142873"
       x2="148.57143"
       y2="90.302124"
       gradientUnits="userSpaceOnUse"
       gradientTransform="translate(1.4285715,1.4285715)" />
    <filter
       id="filter3987"
       inkscape:collect="always">
      <feGaussianBlur
         id="feGaussianBlur3989"
         stdDeviation="1.7852632"
         inkscape:collect="always" />
    </filter>
    <filter
       height="2.2312121"
       y="-0.61560607"
       width="1.7940016"
       x="-0.39700079"
       id="filter3927"
       inkscape:collect="always">
      <feGaussianBlur
         id="feGaussianBlur3929"
         stdDeviation="11.38565"
         inkscape:collect="always" />
    </filter>
    <radialGradient
       r="23.712"
       fy="432.05249"
       fx="201.89474"
       cy="432.05249"
       cx="201.89474"
       gradientTransform="matrix(0.9005662,0,0,0.9029969,14204.328,2216.7947)"
       gradientUnits="userSpaceOnUse"
       id="radialGradient3633"
       xlink:href="#linearGradient3161"
       inkscape:collect="always" />
    <radialGradient
       r="23.712"
       fy="432.05249"
       fx="201.89474"
       cy="432.05249"
       cx="201.89474"
       gradientTransform="matrix(0.9005662,0,0,0.9029969,14202.577,2218.3312)"
       gradientUnits="userSpaceOnUse"
       id="radialGradient3631"
       xlink:href="#linearGradient3183"
       inkscape:collect="always" />
    <linearGradient
       y2="431.72763"
       x2="244.11501"
       y1="431.72763"
       x1="167.68532"
       gradientTransform="matrix(0.9005662,0,0,0.9005662,14199.962,2214.9344)"
       gradientUnits="userSpaceOnUse"
       id="linearGradient3629"
       xlink:href="#linearGradient3169"
       inkscape:collect="always" />
    <linearGradient
       y2="431.72763"
       x2="244.11501"
       y1="431.72763"
       x1="167.68532"
       gradientTransform="matrix(0.9005662,0,0,0.9005662,14200.145,2214.9377)"
       gradientUnits="userSpaceOnUse"
       id="linearGradient3627"
       xlink:href="#linearGradient3169"
       inkscape:collect="always" />
    <linearGradient
       y2="431.72763"
       x2="244.11501"
       y1="431.72763"
       x1="167.68532"
       gradientTransform="translate(7.6712652,-2.936888)"
       gradientUnits="userSpaceOnUse"
       id="linearGradient3193"
       xlink:href="#linearGradient3169"
       inkscape:collect="always" />
    <radialGradient
       r="23.712"
       fy="432.05249"
       fx="201.89474"
       cy="432.05249"
       cx="201.89474"
       gradientTransform="matrix(1,0,0,1.0026991,6.1966692,-7.9956808e-2)"
       gradientUnits="userSpaceOnUse"
       id="radialGradient3181"
       xlink:href="#linearGradient3183"
       inkscape:collect="always" />
    <linearGradient
       gradientTransform="translate(8.0812204,-2.0203051)"
       gradientUnits="userSpaceOnUse"
       y2="431.72763"
       x2="244.11501"
       y1="431.72763"
       x1="167.68532"
       id="linearGradient3175"
       xlink:href="#linearGradient3169"
       inkscape:collect="always" />
    <radialGradient
       gradientUnits="userSpaceOnUse"
       gradientTransform="matrix(1,0,0,1.0026991,11.111678,-1.1661336)"
       r="23.712"
       fy="432.05249"
       fx="201.89474"
       cy="432.05249"
       cx="201.89474"
       id="radialGradient3167"
       xlink:href="#linearGradient3161"
       inkscape:collect="always" />
    <inkscape:perspective
       id="perspective3323"
       inkscape:persp3d-origin="372.04724 : 350.78739 : 1"
       inkscape:vp_z="744.09448 : 526.18109 : 1"
       inkscape:vp_y="0 : 1000 : 0"
       inkscape:vp_x="0 : 526.18109 : 1"
       sodipodi:type="inkscape:persp3d" />
    <linearGradient
       id="linearGradient3161">
      <stop
         id="stop3163"
         offset="0"
         style="stop-color:#ff0000;stop-opacity:1;" />
      <stop
         id="stop3165"
         offset="1"
         style="stop-color:#cb0000;stop-opacity:0.96078432;" />
    </linearGradient>
    <linearGradient
       id="linearGradient3169">
      <stop
         id="stop3171"
         offset="0"
         style="stop-color:#00ff00;stop-opacity:1;" />
      <stop
         id="stop3173"
         offset="1"
         style="stop-color:#00ac00;stop-opacity:0.96078432;" />
    </linearGradient>
    <linearGradient
       id="linearGradient3183">
      <stop
         style="stop-color:#820000;stop-opacity:0.96078432;"
         offset="0"
         id="stop3185" />
      <stop
         style="stop-color:#7a0000;stop-opacity:0.96078432;"
         offset="1"
         id="stop3187" />
    </linearGradient>
    <radialGradient
       r="0.27265269"
       fy="34.5"
       fx="23.719324"
       cy="34.5"
       cx="23.719324"
       gradientTransform="matrix(1,0,0,9.1257225,0,-280.33744)"
       gradientUnits="userSpaceOnUse"
       id="radialGradient3794"
       xlink:href="#linearGradient3309"
       inkscape:collect="always" />
    <radialGradient
       r="0.27265269"
       fy="34.5"
       fx="22.800978"
       cy="34.5"
       cx="22.800978"
       gradientTransform="matrix(1,0,0,9.1257225,0,-280.33744)"
       gradientUnits="userSpaceOnUse"
       id="radialGradient3792"
       xlink:href="#linearGradient3309"
       inkscape:collect="always" />
    <radialGradient
       r="0.27265269"
       fy="34.5"
       fx="21.882629"
       cy="34.5"
       cx="21.882629"
       gradientTransform="matrix(1,0,0,9.1257225,0,-280.33744)"
       gradientUnits="userSpaceOnUse"
       id="radialGradient3790"
       xlink:href="#linearGradient3309"
       inkscape:collect="always" />
    <radialGradient
       r="0.27265269"
       fy="34.500195"
       fx="20.964279"
       cy="34.500195"
       cx="20.964279"
       gradientTransform="matrix(1,0,0,9.1257225,0,-280.33902)"
       gradientUnits="userSpaceOnUse"
       id="radialGradient3788"
       xlink:href="#linearGradient3309"
       inkscape:collect="always" />
    <radialGradient
       r="0.27265269"
       fy="34.500195"
       fx="20.045933"
       cy="34.500195"
       cx="20.045933"
       gradientTransform="matrix(1,0,0,9.1257225,0,-280.33902)"
       gradientUnits="userSpaceOnUse"
       id="radialGradient3786"
       xlink:href="#linearGradient3309"
       inkscape:collect="always" />
    <radialGradient
       r="0.27265269"
       fy="34.5"
       fx="19.12789"
       cy="34.5"
       cx="19.12789"
       gradientTransform="matrix(1,0,0,9.1257225,0,-280.33744)"
       gradientUnits="userSpaceOnUse"
       id="radialGradient3784"
       xlink:href="#linearGradient3309"
       inkscape:collect="always" />
    <radialGradient
       r="0.27265269"
       fy="34.5"
       fx="18.209539"
       cy="34.5"
       cx="18.209539"
       gradientTransform="matrix(1,0,0,9.1257225,0,-280.33744)"
       gradientUnits="userSpaceOnUse"
       id="radialGradient3782"
       xlink:href="#linearGradient3309"
       inkscape:collect="always" />
    <radialGradient
       r="0.27265269"
       fy="34.5"
       fx="17.291191"
       cy="34.5"
       cx="17.291191"
       gradientTransform="matrix(1,0,0,9.1257225,0,-280.33744)"
       gradientUnits="userSpaceOnUse"
       id="radialGradient3780"
       xlink:href="#linearGradient3309"
       inkscape:collect="always" />
    <linearGradient
       y2="31.599964"
       x2="22.999771"
       y1="31.599964"
       x1="17.999743"
       gradientUnits="userSpaceOnUse"
       id="linearGradient3778"
       xlink:href="#linearGradient3255"
       inkscape:collect="always" />
    <linearGradient
       y2="56.900183"
       x2="22.999836"
       y1="56.900183"
       x1="18"
       gradientUnits="userSpaceOnUse"
       id="linearGradient3776"
       xlink:href="#linearGradient3301"
       inkscape:collect="always" />
    <linearGradient
       y2="37.149799"
       x2="25.000038"
       y1="37.149799"
       x1="16"
       gradientUnits="userSpaceOnUse"
       id="linearGradient3774"
       xlink:href="#linearGradient3255"
       inkscape:collect="always" />
    <linearGradient
       y2="34.500179"
       x2="23.999884"
       y1="34.500179"
       x1="17"
       gradientUnits="userSpaceOnUse"
       id="linearGradient3772"
       xlink:href="#linearGradient3255"
       inkscape:collect="always" />
    <linearGradient
       y2="37.899948"
       x2="25.000071"
       y1="37.899948"
       x1="15.99995"
       gradientUnits="userSpaceOnUse"
       id="linearGradient3770"
       xlink:href="#linearGradient3255"
       inkscape:collect="always" />
    <linearGradient
       y2="41.999954"
       x2="25.000189"
       y1="41.999954"
       x1="16"
       gradientUnits="userSpaceOnUse"
       id="linearGradient3768"
       xlink:href="#linearGradient3255"
       inkscape:collect="always" />
    <linearGradient
       y2="48.899887"
       x2="24.000122"
       y1="48.899887"
       x1="16.999878"
       gradientUnits="userSpaceOnUse"
       id="linearGradient3766"
       xlink:href="#linearGradient3255"
       inkscape:collect="always" />
    <linearGradient
       y2="48.249836"
       x2="24.000303"
       y1="48.249836"
       x1="17"
       gradientUnits="userSpaceOnUse"
       id="linearGradient3764"
       xlink:href="#linearGradient3255"
       inkscape:collect="always" />
    <linearGradient
       y2="49.478333"
       x2="24.043819"
       y1="49.478333"
       x1="17"
       gradientUnits="userSpaceOnUse"
       id="linearGradient3762"
       xlink:href="#linearGradient3255"
       inkscape:collect="always" />
    <linearGradient
       y2="50"
       x2="26.000072"
       y1="50"
       x1="15.000209"
       gradientUnits="userSpaceOnUse"
       id="linearGradient3760"
       xlink:href="#linearGradient3255"
       inkscape:collect="always" />
    <linearGradient
       y2="42.99987"
       x2="26.000008"
       y1="42.99987"
       x1="15"
       gradientUnits="userSpaceOnUse"
       id="linearGradient3758"
       xlink:href="#linearGradient3255"
       inkscape:collect="always" />
    <linearGradient
       y2="431.72763"
       x2="244.11501"
       y1="431.72763"
       x1="167.68532"
       gradientTransform="matrix(0.8024368,0,0,0.8024368,-133.22179,-314.43403)"
       gradientUnits="userSpaceOnUse"
       id="linearGradient3698"
       xlink:href="#linearGradient3169"
       inkscape:collect="always" />
    <linearGradient
       y2="431.72763"
       x2="244.11501"
       y1="431.72763"
       x1="167.68532"
       gradientTransform="matrix(0.9005662,0,0,0.9005662,-156.49865,-384.08343)"
       gradientUnits="userSpaceOnUse"
       id="linearGradient3696"
       xlink:href="#linearGradient3169"
       inkscape:collect="always" />
    <linearGradient
       y2="431.72763"
       x2="244.11501"
       y1="431.72763"
       x1="167.68532"
       gradientTransform="matrix(0.9005662,0,0,0.9005662,-144.72886,-395.55537)"
       gradientUnits="userSpaceOnUse"
       id="linearGradient3648"
       xlink:href="#linearGradient3169"
       inkscape:collect="always" />
    <linearGradient
       y2="431.72763"
       x2="244.11501"
       y1="431.72763"
       x1="167.68532"
       gradientTransform="matrix(0.8024368,0,0,0.8024368,-125.59987,-360.96897)"
       gradientUnits="userSpaceOnUse"
       id="linearGradient3644"
       xlink:href="#linearGradient3169"
       inkscape:collect="always" />
    <radialGradient
       r="23.712"
       fy="432.05249"
       fx="201.89474"
       cy="432.05249"
       cx="201.89474"
       gradientTransform="matrix(0.9005662,0,0,0.9029969,-155.68971,-352.34044)"
       gradientUnits="userSpaceOnUse"
       id="radialGradient3640"
       xlink:href="#linearGradient3183"
       inkscape:collect="always" />
    <radialGradient
       r="23.712"
       fy="432.05249"
       fx="201.89474"
       cy="432.05249"
       cx="201.89474"
       gradientTransform="matrix(0.9005662,0,0,0.9029969,-153.93871,-353.87694)"
       gradientUnits="userSpaceOnUse"
       id="radialGradient3636"
       xlink:href="#linearGradient3161"
       inkscape:collect="always" />
    <radialGradient
       r="23.712"
       fy="432.05249"
       fx="201.89474"
       cy="432.05249"
       cx="201.89474"
       gradientTransform="matrix(0.9005662,0,0,0.9029969,14204.328,2216.7947)"
       gradientUnits="userSpaceOnUse"
       id="radialGradient3632"
       xlink:href="#linearGradient3161"
       inkscape:collect="always" />
    <radialGradient
       r="23.712"
       fy="432.05249"
       fx="201.89474"
       cy="432.05249"
       cx="201.89474"
       gradientTransform="matrix(0.9005662,0,0,0.9029969,14202.577,2218.3312)"
       gradientUnits="userSpaceOnUse"
       id="radialGradient3630"
       xlink:href="#linearGradient3183"
       inkscape:collect="always" />
    <linearGradient
       y2="431.72763"
       x2="244.11501"
       y1="431.72763"
       x1="167.68532"
       gradientTransform="matrix(0.9005662,0,0,0.9005662,14199.962,2214.9344)"
       gradientUnits="userSpaceOnUse"
       id="linearGradient3628"
       xlink:href="#linearGradient3169"
       inkscape:collect="always" />
    <linearGradient
       y2="431.72763"
       x2="244.11501"
       y1="431.72763"
       x1="167.68532"
       gradientTransform="matrix(0.9005662,0,0,0.9005662,14200.145,2214.9377)"
       gradientUnits="userSpaceOnUse"
       id="linearGradient3626"
       xlink:href="#linearGradient3169"
       inkscape:collect="always" />
    <linearGradient
       id="linearGradient2776">
      <stop
         id="stop2778"
         offset="0"
         style="stop-color:#820000;stop-opacity:0.96078432;" />
      <stop
         id="stop2780"
         offset="1"
         style="stop-color:#7a0000;stop-opacity:0.96078432;" />
    </linearGradient>
    <linearGradient
       id="linearGradient2770">
      <stop
         style="stop-color:#00ff00;stop-opacity:1;"
         offset="0"
         id="stop2772" />
      <stop
         style="stop-color:#00ac00;stop-opacity:0.96078432;"
         offset="1"
         id="stop2774" />
    </linearGradient>
    <linearGradient
       id="linearGradient2764">
      <stop
         style="stop-color:#ff0000;stop-opacity:1;"
         offset="0"
         id="stop2766" />
      <stop
         style="stop-color:#cb0000;stop-opacity:0.96078432;"
         offset="1"
         id="stop2768" />
    </linearGradient>
    <inkscape:perspective
       sodipodi:type="inkscape:persp3d"
       inkscape:vp_x="0 : 526.18109 : 1"
       inkscape:vp_y="0 : 1000 : 0"
       inkscape:vp_z="744.09448 : 526.18109 : 1"
       inkscape:persp3d-origin="372.04724 : 350.78739 : 1"
       id="perspective3584" />
    <radialGradient
       inkscape:collect="always"
       xlink:href="#linearGradient3161"
       id="radialGradient2761"
       cx="201.89474"
       cy="432.05249"
       fx="201.89474"
       fy="432.05249"
       r="23.712"
       gradientTransform="matrix(1,0,0,1.0026991,11.111678,-1.1661336)"
       gradientUnits="userSpaceOnUse" />
    <linearGradient
       inkscape:collect="always"
       xlink:href="#linearGradient3169"
       id="linearGradient2759"
       x1="167.68532"
       y1="431.72763"
       x2="244.11501"
       y2="431.72763"
       gradientUnits="userSpaceOnUse"
       gradientTransform="translate(8.0812204,-2.0203051)" />
    <radialGradient
       inkscape:collect="always"
       xlink:href="#linearGradient3183"
       id="radialGradient2757"
       gradientUnits="userSpaceOnUse"
       gradientTransform="matrix(1,0,0,1.0026991,6.1966692,-7.9956808e-2)"
       cx="201.89474"
       cy="432.05249"
       fx="201.89474"
       fy="432.05249"
       r="23.712" />
    <linearGradient
       inkscape:collect="always"
       xlink:href="#linearGradient3169"
       id="linearGradient2755"
       gradientUnits="userSpaceOnUse"
       gradientTransform="translate(7.6712652,-2.936888)"
       x1="167.68532"
       y1="431.72763"
       x2="244.11501"
       y2="431.72763" />
    <linearGradient
       inkscape:collect="always"
       xlink:href="#linearGradient3169"
       id="linearGradient2753"
       gradientUnits="userSpaceOnUse"
       gradientTransform="matrix(0.9005662,0,0,0.9005662,14200.145,2214.9377)"
       x1="167.68532"
       y1="431.72763"
       x2="244.11501"
       y2="431.72763" />
    <linearGradient
       inkscape:collect="always"
       xlink:href="#linearGradient3169"
       id="linearGradient2751"
       gradientUnits="userSpaceOnUse"
       gradientTransform="matrix(0.9005662,0,0,0.9005662,14199.962,2214.9344)"
       x1="167.68532"
       y1="431.72763"
       x2="244.11501"
       y2="431.72763" />
    <radialGradient
       inkscape:collect="always"
       xlink:href="#linearGradient3183"
       id="radialGradient2749"
       gradientUnits="userSpaceOnUse"
       gradientTransform="matrix(0.9005662,0,0,0.9029969,14202.577,2218.3312)"
       cx="201.89474"
       cy="432.05249"
       fx="201.89474"
       fy="432.05249"
       r="23.712" />
    <radialGradient
       inkscape:collect="always"
       xlink:href="#linearGradient3161"
       id="radialGradient2747"
       gradientUnits="userSpaceOnUse"
       gradientTransform="matrix(0.9005662,0,0,0.9029969,14204.328,2216.7947)"
       cx="201.89474"
       cy="432.05249"
       fx="201.89474"
       fy="432.05249"
       r="23.712" />
    <inkscape:perspective
       id="perspective2737"
       inkscape:persp3d-origin="372.04724 : 350.78739 : 1"
       inkscape:vp_z="744.09448 : 526.18109 : 1"
       inkscape:vp_y="0 : 1000 : 0"
       inkscape:vp_x="0 : 526.18109 : 1"
       sodipodi:type="inkscape:persp3d" />
    <linearGradient
       id="linearGradient3229">
      <stop
         id="stop3231"
         offset="0"
         style="stop-color:#ffffff;stop-opacity:0.27551019;" />
      <stop
         id="stop3233"
         offset="1"
         style="stop-color:#ffffff;stop-opacity:0;" />
    </linearGradient>
    <linearGradient
       id="linearGradient3255">
      <stop
         id="stop3257"
         offset="0"
         style="stop-color:#c0bbbb;stop-opacity:1;" />
      <stop
         id="stop3259"
         offset="1"
         style="stop-color:#e8e8e8;stop-opacity:1;" />
    </linearGradient>
    <linearGradient
       id="linearGradient3301">
      <stop
         id="stop3303"
         offset="0"
         style="stop-color:#4742f3;stop-opacity:1;" />
      <stop
         id="stop3305"
         offset="1"
         style="stop-color:#1b1a48;stop-opacity:1;" />
    </linearGradient>
    <linearGradient
       id="linearGradient3309">
      <stop
         id="stop3311"
         offset="0"
         style="stop-color:#d4db10;stop-opacity:1;" />
      <stop
         id="stop3313"
         offset="1"
         style="stop-color:#afb50e;stop-opacity:1;" />
    </linearGradient>
  </defs>
  <sodipodi:namedview
     id="base"
     pagecolor="#ffffff"
     bordercolor="#666666"
     borderopacity="1.0"
     inkscape:pageopacity="0.0"
     inkscape:pageshadow="2"
     inkscape:zoom="1.4"
     inkscape:cx="197.41906"
     inkscape:cy="28.315577"
     inkscape:document-units="px"
     inkscape:current-layer="layer3"
     showgrid="false"
     inkscape:window-width="847"
     inkscape:window-height="718"
     inkscape:window-x="142"
     inkscape:window-y="0" />
  <metadata
     id="metadata7">
    <rdf:RDF>
      <cc:Work
         rdf:about="">
        <dc:format>image/svg+xml</dc:format>
        <dc:type
           rdf:resource="http://purl.org/dc/dcmitype/StillImage" />
      </cc:Work>
    </rdf:RDF>
  </metadata>
  <g
     inkscape:label="Background"
     inkscape:groupmode="layer"
     id="layer1">
    <rect
       style="fill:url(#linearGradient3163);fill-opacity:1"
       id="rect2383"
       width="300"
       height="100"
       x="0"
       y="0" />
  </g>
  <g
     inkscape:groupmode="layer"
     id="layer2"
     inkscape:label="LANWakeup Logo">
    <g
       id="g2811"
       transform="translate(8.775,6.0940003)">
      <g
         inkscape:label="Digitecnology LEDS"
         id="g2813">
        <text
           transform="matrix(0.891036,0,0,0.8910278,6.1136021,27.798637)"
           sodipodi:linespacing="125%"
           id="text3189"
           y="26.909781"
           x="-5.4864249"
           style="font-size:64.84076691px;font-style:normal;font-variant:normal;font-weight:normal;font-stretch:normal;text-align:start;line-height:125%;writing-mode:lr-tb;text-anchor:start;fill:url(#linearGradient3696);fill-opacity:1;stroke:none;stroke-width:1px;stroke-linecap:butt;stroke-linejoin:miter;stroke-opacity:1;filter:url(#filter3927);font-family:Charaille AOE;-inkscape-font-specification:Charaille AOE"
           xml:space="preserve"><tspan
             style="fill:url(#linearGradient3696);fill-opacity:1"
             y="26.909781"
             x="-5.4864249"
             id="tspan3191"
             sodipodi:role="line">01</tspan></text>
        <text
           sodipodi:linespacing="125%"
           id="text2387"
           y="51.776001"
           x="1.335"
           style="font-size:57.77544403px;font-style:normal;font-variant:normal;font-weight:normal;font-stretch:normal;text-align:start;line-height:125%;writing-mode:lr-tb;text-anchor:start;fill:url(#linearGradient3698);fill-opacity:1;stroke:none;stroke-width:1px;stroke-linecap:butt;stroke-linejoin:miter;stroke-opacity:1;font-family:Charaille AOE;-inkscape-font-specification:Charaille AOE"
           xml:space="preserve"><tspan
             style="fill:url(#linearGradient3698);fill-opacity:1"
             y="51.776001"
             x="1.335"
             id="tspan2389"
             sodipodi:role="line">00</tspan></text>
      </g>
      <g
         id="g2819"
         inkscape:label="RJ-45">
        <g
           transform="matrix(1.9046151,0,0,1.9046151,-7.3130342,-55.351214)"
           id="g3670">
          <rect
             style="fill:url(#linearGradient3758);fill-opacity:1;stroke:#928888;stroke-width:0.1;stroke-miterlimit:4;stroke-dasharray:none;stroke-opacity:1"
             id="rect2822"
             width="10.875008"
             height="21.875257"
             x="15.0625"
             y="32.062241" />
          <rect
             style="fill:url(#linearGradient3760);fill-opacity:1;stroke:#928888;stroke-width:0.1;stroke-miterlimit:4;stroke-dasharray:none;stroke-opacity:1"
             id="rect3163"
             width="10.874864"
             height="7.8745441"
             x="15.062709"
             y="46.062729" />
          <rect
             style="fill:url(#linearGradient3762);fill-opacity:1;stroke:#928888;stroke-width:0.1;stroke-miterlimit:4;stroke-dasharray:none;stroke-opacity:1"
             id="rect3167"
             width="6.9188204"
             height="2.9183357"
             x="17.0625"
             y="48.019165" />
          <rect
             style="fill:url(#linearGradient3764);fill-opacity:1;stroke:#928888;stroke-width:0.1;stroke-miterlimit:4;stroke-dasharray:none;stroke-opacity:1"
             id="rect3169"
             width="6.8753033"
             height="0.37533316"
             x="17.0625"
             y="48.062168" />
          <rect
             style="fill:url(#linearGradient3766);fill-opacity:1;stroke:#928888;stroke-width:0.1;stroke-miterlimit:4;stroke-dasharray:none;stroke-opacity:1"
             id="rect3171"
             width="6.8752446"
             height="0.87522757"
             x="17.062378"
             y="48.462273" />
          <rect
             style="fill:url(#linearGradient3768);fill-opacity:1;stroke:#928888;stroke-width:0.1;stroke-miterlimit:4;stroke-dasharray:none;stroke-opacity:1"
             id="rect3173"
             width="8.8751888"
             height="3.8750968"
             x="16.0625"
             y="40.062405" />
          <rect
             style="fill:url(#linearGradient3770);fill-opacity:1;stroke:#928888;stroke-width:0.1;stroke-miterlimit:4;stroke-dasharray:none;stroke-opacity:1"
             id="rect3175"
             width="8.8751202"
             height="1.8751029"
             x="16.06245"
             y="36.962399" />
          <rect
             style="fill:url(#linearGradient3772);fill-opacity:1;stroke:#928888;stroke-width:0.1;stroke-miterlimit:4;stroke-dasharray:none;stroke-opacity:1"
             id="rect3177"
             width="6.8748827"
             height="4.8746428"
             x="17.0625"
             y="32.062859" />
          <rect
             style="fill:url(#linearGradient3774);fill-opacity:1;stroke:#928888;stroke-width:0.1;stroke-miterlimit:4;stroke-dasharray:none;stroke-opacity:1"
             id="rect3199"
             width="8.8750381"
             height="0.37540326"
             x="16.0625"
             y="36.962097" />
          <path
             style="fill:url(#linearGradient3776);fill-opacity:1;stroke:#0007ff;stroke-width:0.09970669;stroke-miterlimit:4;stroke-opacity:0.16814162"
             d="M 18.0625,53.962868 L 22.937336,53.962868 L 22.937336,59.837498 C 21.353714,60.787933 19.730296,60.823057 18.0625,59.837498 L 18.0625,53.962868 z"
             id="rect3201"
             sodipodi:nodetypes="ccccc" />
          <rect
             style="fill:url(#linearGradient3778);fill-opacity:1;stroke:#928888;stroke-width:0.09949165;stroke-miterlimit:4;stroke-dasharray:none;stroke-opacity:1"
             id="rect3227"
             width="4.8750281"
             height="0.87507159"
             x="18.062243"
             y="31.162428" />
          <rect
             style="fill:url(#radialGradient3780);fill-opacity:1;stroke:#baca00;stroke-width:0.1;stroke-miterlimit:4;stroke-dasharray:none;stroke-opacity:1"
             id="rect3203"
             width="0.42030537"
             height="4.8513055"
             x="17.081039"
             y="32.074348" />
          <rect
             style="fill:url(#radialGradient3782);fill-opacity:1;stroke:#baca00;stroke-width:0.1;stroke-miterlimit:4;stroke-dasharray:none;stroke-opacity:1"
             id="rect3211"
             width="0.42030537"
             height="4.8513055"
             x="17.999388"
             y="32.074348" />
          <rect
             style="fill:url(#radialGradient3784);fill-opacity:1;stroke:#baca00;stroke-width:0.1;stroke-miterlimit:4;stroke-dasharray:none;stroke-opacity:1"
             id="rect3213"
             width="0.42030537"
             height="4.8513055"
             x="18.917736"
             y="32.074348" />
          <rect
             style="fill:url(#radialGradient3786);fill-opacity:1;stroke:#baca00;stroke-width:0.1;stroke-miterlimit:4;stroke-dasharray:none;stroke-opacity:1"
             id="rect3215"
             width="0.42030537"
             height="4.8513055"
             x="19.835779"
             y="32.074543" />
          <rect
             style="fill:url(#radialGradient3788);fill-opacity:1;stroke:#baca00;stroke-width:0.1;stroke-miterlimit:4;stroke-dasharray:none;stroke-opacity:1"
             id="rect3217"
             width="0.42030537"
             height="4.8513055"
             x="20.754128"
             y="32.074543" />
          <rect
             style="fill:url(#radialGradient3790);fill-opacity:1;stroke:#baca00;stroke-width:0.1;stroke-miterlimit:4;stroke-dasharray:none;stroke-opacity:1"
             id="rect3219"
             width="0.42030537"
             height="4.8513055"
             x="21.672476"
             y="32.074348" />
          <rect
             style="fill:url(#radialGradient3792);fill-opacity:1;stroke:#baca00;stroke-width:0.1;stroke-miterlimit:4;stroke-dasharray:none;stroke-opacity:1"
             id="rect3221"
             width="0.42030537"
             height="4.8513055"
             x="22.590824"
             y="32.074348" />
          <rect
             style="fill:url(#radialGradient3794);fill-opacity:1;stroke:#baca00;stroke-width:0.1;stroke-miterlimit:4;stroke-dasharray:none;stroke-opacity:1"
             id="rect3223"
             width="0.42030537"
             height="4.8513055"
             x="23.509172"
             y="32.074348" />
        </g>
      </g>
    </g>
  </g>
  <g
     inkscape:groupmode="layer"
     id="layer4"
     inkscape:label="Digitecnology Text">
    <text
       xml:space="preserve"
       style="font-size:24px;font-style:normal;font-variant:normal;font-weight:normal;font-stretch:normal;text-align:start;line-height:125%;writing-mode:lr-tb;text-anchor:start;fill:#e30000;fill-opacity:1;stroke:none;stroke-width:1px;stroke-linecap:butt;stroke-linejoin:miter;stroke-opacity:1;font-family:Believer;-inkscape-font-specification:Believer"
       x="90"
       y="46.375999"
       id="text3835"
       sodipodi:linespacing="125%"><tspan
         sodipodi:role="line"
         id="tspan3837"
         x="90"
         y="46.375999">Digitecnology</tspan></text>
  </g>
  <g
     inkscape:groupmode="layer"
     id="layer3"
     inkscape:label="LANWakeup Text">
    <text
       xml:space="preserve"
       style="font-size:28px;font-style:normal;font-variant:normal;font-weight:normal;font-stretch:normal;text-align:start;line-height:125%;writing-mode:lr-tb;text-anchor:start;fill:#e3ff00;fill-opacity:1;stroke:none;stroke-width:1px;stroke-linecap:butt;stroke-linejoin:miter;stroke-opacity:1;font-family:Believer;-inkscape-font-specification:Believer"
       x="80"
       y="85.828003"
       id="text3350"
       sodipodi:linespacing="125%"><tspan
         sodipodi:role="line"
         id="tspan3352"
         x="80"
         y="85.828003">LAN Wakeup</tspan></text>
  </g>
</svg>
