<?xml version="1.0" encoding="UTF-8" standalone="no"?>
<!-- Created with Inkscape (http://www.inkscape.org/) -->
<svg
   xmlns:dc="http://purl.org/dc/elements/1.1/"
   xmlns:cc="http://creativecommons.org/ns#"
   xmlns:rdf="http://www.w3.org/1999/02/22-rdf-syntax-ns#"
   xmlns:svg="http://www.w3.org/2000/svg"
   xmlns="http://www.w3.org/2000/svg"
   xmlns:xlink="http://www.w3.org/1999/xlink"
   xmlns:sodipodi="http://sodipodi.sourceforge.net/DTD/sodipodi-0.dtd"
   xmlns:inkscape="http://www.inkscape.org/namespaces/inkscape"
   width="64"
   height="64"
   id="svg2"
   sodipodi:version="0.32"
   inkscape:version="0.46"
   version="1.0"
   sodipodi:docname="ICON_NEW_FINISHED.svg"
   inkscape:output_extension="org.inkscape.output.svg.inkscape"
   inkscape:export-filename="/data/user/stevencrc/documents/projects/LANWakeup/gui/Icon.png"
   inkscape:export-xdpi="90"
   inkscape:export-ydpi="90">
  <defs
     id="defs4">
    <linearGradient
       id="linearGradient3309">
      <stop
         style="stop-color:#d4db10;stop-opacity:1;"
         offset="0"
         id="stop3311" />
      <stop
         style="stop-color:#afb50e;stop-opacity:1;"
         offset="1"
         id="stop3313" />
    </linearGradient>
    <linearGradient
       id="linearGradient3301">
      <stop
         style="stop-color:#4742f3;stop-opacity:1;"
         offset="0"
         id="stop3303" />
      <stop
         style="stop-color:#1b1a48;stop-opacity:1;"
         offset="1"
         id="stop3305" />
    </linearGradient>
    <linearGradient
       id="linearGradient3255">
      <stop
         style="stop-color:#c0bbbb;stop-opacity:1;"
         offset="0"
         id="stop3257" />
      <stop
         style="stop-color:#e8e8e8;stop-opacity:1;"
         offset="1"
         id="stop3259" />
    </linearGradient>
    <linearGradient
       id="linearGradient3229">
      <stop
         style="stop-color:#ffffff;stop-opacity:0.27551019;"
         offset="0"
         id="stop3231" />
      <stop
         style="stop-color:#ffffff;stop-opacity:0;"
         offset="1"
         id="stop3233" />
    </linearGradient>
    <inkscape:perspective
       sodipodi:type="inkscape:persp3d"
       inkscape:vp_x="0 : 526.18109 : 1"
       inkscape:vp_y="0 : 1000 : 0"
       inkscape:vp_z="744.09448 : 526.18109 : 1"
       inkscape:persp3d-origin="372.04724 : 350.78739 : 1"
       id="perspective10" />
    <filter
       id="filter3987"
       inkscape:collect="always">
      <feGaussianBlur
         id="feGaussianBlur3989"
         stdDeviation="1.7852632"
         inkscape:collect="always" />
    </filter>
    <filter
       height="2.2312121"
       y="-0.61560607"
       width="1.7940016"
       x="-0.39700079"
       id="filter3927"
       inkscape:collect="always">
      <feGaussianBlur
         id="feGaussianBlur3929"
         stdDeviation="11.38565"
         inkscape:collect="always" />
    </filter>
    <radialGradient
       r="23.712"
       fy="432.05249"
       fx="201.89474"
       cy="432.05249"
       cx="201.89474"
       gradientTransform="matrix(0.9005662,0,0,0.9029969,14204.328,2216.7947)"
       gradientUnits="userSpaceOnUse"
       id="radialGradient3633"
       xlink:href="#linearGradient3161"
       inkscape:collect="always" />
    <radialGradient
       r="23.712"
       fy="432.05249"
       fx="201.89474"
       cy="432.05249"
       cx="201.89474"
       gradientTransform="matrix(0.9005662,0,0,0.9029969,14202.577,2218.3312)"
       gradientUnits="userSpaceOnUse"
       id="radialGradient3631"
       xlink:href="#linearGradient3183"
       inkscape:collect="always" />
    <linearGradient
       y2="431.72763"
       x2="244.11501"
       y1="431.72763"
       x1="167.68532"
       gradientTransform="matrix(0.9005662,0,0,0.9005662,14199.962,2214.9344)"
       gradientUnits="userSpaceOnUse"
       id="linearGradient3629"
       xlink:href="#linearGradient3169"
       inkscape:collect="always" />
    <linearGradient
       y2="431.72763"
       x2="244.11501"
       y1="431.72763"
       x1="167.68532"
       gradientTransform="matrix(0.9005662,0,0,0.9005662,14200.145,2214.9377)"
       gradientUnits="userSpaceOnUse"
       id="linearGradient3627"
       xlink:href="#linearGradient3169"
       inkscape:collect="always" />
    <linearGradient
       y2="431.72763"
       x2="244.11501"
       y1="431.72763"
       x1="167.68532"
       gradientTransform="translate(7.6712652,-2.936888)"
       gradientUnits="userSpaceOnUse"
       id="linearGradient3193"
       xlink:href="#linearGradient3169"
       inkscape:collect="always" />
    <radialGradient
       r="23.712"
       fy="432.05249"
       fx="201.89474"
       cy="432.05249"
       cx="201.89474"
       gradientTransform="matrix(1,0,0,1.0026991,6.1966692,-7.9956808e-2)"
       gradientUnits="userSpaceOnUse"
       id="radialGradient3181"
       xlink:href="#linearGradient3183"
       inkscape:collect="always" />
    <linearGradient
       gradientTransform="translate(8.0812204,-2.0203051)"
       gradientUnits="userSpaceOnUse"
       y2="431.72763"
       x2="244.11501"
       y1="431.72763"
       x1="167.68532"
       id="linearGradient3175"
       xlink:href="#linearGradient3169"
       inkscape:collect="always" />
    <radialGradient
       gradientUnits="userSpaceOnUse"
       gradientTransform="matrix(1,0,0,1.0026991,11.111678,-1.1661336)"
       r="23.712"
       fy="432.05249"
       fx="201.89474"
       cy="432.05249"
       cx="201.89474"
       id="radialGradient3167"
       xlink:href="#linearGradient3161"
       inkscape:collect="always" />
    <inkscape:perspective
       id="perspective3584"
       inkscape:persp3d-origin="372.04724 : 350.78739 : 1"
       inkscape:vp_z="744.09448 : 526.18109 : 1"
       inkscape:vp_y="0 : 1000 : 0"
       inkscape:vp_x="0 : 526.18109 : 1"
       sodipodi:type="inkscape:persp3d" />
    <linearGradient
       id="linearGradient3161">
      <stop
         id="stop3163"
         offset="0"
         style="stop-color:#ff0000;stop-opacity:1;" />
      <stop
         id="stop3165"
         offset="1"
         style="stop-color:#cb0000;stop-opacity:0.96078432;" />
    </linearGradient>
    <linearGradient
       id="linearGradient3169">
      <stop
         id="stop3171"
         offset="0"
         style="stop-color:#00ff00;stop-opacity:1;" />
      <stop
         id="stop3173"
         offset="1"
         style="stop-color:#00ac00;stop-opacity:0.96078432;" />
    </linearGradient>
    <linearGradient
       id="linearGradient3183">
      <stop
         style="stop-color:#820000;stop-opacity:0.96078432;"
         offset="0"
         id="stop3185" />
      <stop
         style="stop-color:#7a0000;stop-opacity:0.96078432;"
         offset="1"
         id="stop3187" />
    </linearGradient>
    <linearGradient
       inkscape:collect="always"
       xlink:href="#linearGradient3169"
       id="linearGradient3626"
       gradientUnits="userSpaceOnUse"
       gradientTransform="matrix(0.9005662,0,0,0.9005662,14200.145,2214.9377)"
       x1="167.68532"
       y1="431.72763"
       x2="244.11501"
       y2="431.72763" />
    <linearGradient
       inkscape:collect="always"
       xlink:href="#linearGradient3169"
       id="linearGradient3628"
       gradientUnits="userSpaceOnUse"
       gradientTransform="matrix(0.9005662,0,0,0.9005662,14199.962,2214.9344)"
       x1="167.68532"
       y1="431.72763"
       x2="244.11501"
       y2="431.72763" />
    <radialGradient
       inkscape:collect="always"
       xlink:href="#linearGradient3183"
       id="radialGradient3630"
       gradientUnits="userSpaceOnUse"
       gradientTransform="matrix(0.9005662,0,0,0.9029969,14202.577,2218.3312)"
       cx="201.89474"
       cy="432.05249"
       fx="201.89474"
       fy="432.05249"
       r="23.712" />
    <radialGradient
       inkscape:collect="always"
       xlink:href="#linearGradient3161"
       id="radialGradient3632"
       gradientUnits="userSpaceOnUse"
       gradientTransform="matrix(0.9005662,0,0,0.9029969,14204.328,2216.7947)"
       cx="201.89474"
       cy="432.05249"
       fx="201.89474"
       fy="432.05249"
       r="23.712" />
    <radialGradient
       inkscape:collect="always"
       xlink:href="#linearGradient3161"
       id="radialGradient3636"
       gradientUnits="userSpaceOnUse"
       gradientTransform="matrix(0.9005662,0,0,0.9029969,-153.93871,-353.87694)"
       cx="201.89474"
       cy="432.05249"
       fx="201.89474"
       fy="432.05249"
       r="23.712" />
    <radialGradient
       inkscape:collect="always"
       xlink:href="#linearGradient3183"
       id="radialGradient3640"
       gradientUnits="userSpaceOnUse"
       gradientTransform="matrix(0.9005662,0,0,0.9029969,-155.68971,-352.34044)"
       cx="201.89474"
       cy="432.05249"
       fx="201.89474"
       fy="432.05249"
       r="23.712" />
    <linearGradient
       inkscape:collect="always"
       xlink:href="#linearGradient3169"
       id="linearGradient3644"
       gradientUnits="userSpaceOnUse"
       gradientTransform="matrix(0.8024368,0,0,0.8024368,-125.59987,-360.96897)"
       x1="167.68532"
       y1="431.72763"
       x2="244.11501"
       y2="431.72763" />
    <linearGradient
       inkscape:collect="always"
       xlink:href="#linearGradient3169"
       id="linearGradient3648"
       gradientUnits="userSpaceOnUse"
       gradientTransform="matrix(0.9005662,0,0,0.9005662,-144.72886,-395.55537)"
       x1="167.68532"
       y1="431.72763"
       x2="244.11501"
       y2="431.72763" />
    <linearGradient
       inkscape:collect="always"
       xlink:href="#linearGradient3169"
       id="linearGradient3696"
       gradientUnits="userSpaceOnUse"
       gradientTransform="matrix(0.9005662,0,0,0.9005662,-156.49865,-384.08343)"
       x1="167.68532"
       y1="431.72763"
       x2="244.11501"
       y2="431.72763" />
    <linearGradient
       inkscape:collect="always"
       xlink:href="#linearGradient3169"
       id="linearGradient3698"
       gradientUnits="userSpaceOnUse"
       gradientTransform="matrix(0.8024368,0,0,0.8024368,-133.22179,-314.43403)"
       x1="167.68532"
       y1="431.72763"
       x2="244.11501"
       y2="431.72763" />
    <linearGradient
       inkscape:collect="always"
       xlink:href="#linearGradient3255"
       id="linearGradient3758"
       gradientUnits="userSpaceOnUse"
       x1="15"
       y1="42.99987"
       x2="26.000008"
       y2="42.99987" />
    <linearGradient
       inkscape:collect="always"
       xlink:href="#linearGradient3255"
       id="linearGradient3760"
       gradientUnits="userSpaceOnUse"
       x1="15.000209"
       y1="50"
       x2="26.000072"
       y2="50" />
    <linearGradient
       inkscape:collect="always"
       xlink:href="#linearGradient3255"
       id="linearGradient3762"
       gradientUnits="userSpaceOnUse"
       x1="17"
       y1="49.478333"
       x2="24.043819"
       y2="49.478333" />
    <linearGradient
       inkscape:collect="always"
       xlink:href="#linearGradient3255"
       id="linearGradient3764"
       gradientUnits="userSpaceOnUse"
       x1="17"
       y1="48.249836"
       x2="24.000303"
       y2="48.249836" />
    <linearGradient
       inkscape:collect="always"
       xlink:href="#linearGradient3255"
       id="linearGradient3766"
       gradientUnits="userSpaceOnUse"
       x1="16.999878"
       y1="48.899887"
       x2="24.000122"
       y2="48.899887" />
    <linearGradient
       inkscape:collect="always"
       xlink:href="#linearGradient3255"
       id="linearGradient3768"
       gradientUnits="userSpaceOnUse"
       x1="16"
       y1="41.999954"
       x2="25.000189"
       y2="41.999954" />
    <linearGradient
       inkscape:collect="always"
       xlink:href="#linearGradient3255"
       id="linearGradient3770"
       gradientUnits="userSpaceOnUse"
       x1="15.99995"
       y1="37.899948"
       x2="25.000071"
       y2="37.899948" />
    <linearGradient
       inkscape:collect="always"
       xlink:href="#linearGradient3255"
       id="linearGradient3772"
       gradientUnits="userSpaceOnUse"
       x1="17"
       y1="34.500179"
       x2="23.999884"
       y2="34.500179" />
    <linearGradient
       inkscape:collect="always"
       xlink:href="#linearGradient3255"
       id="linearGradient3774"
       gradientUnits="userSpaceOnUse"
       x1="16"
       y1="37.149799"
       x2="25.000038"
       y2="37.149799" />
    <linearGradient
       inkscape:collect="always"
       xlink:href="#linearGradient3301"
       id="linearGradient3776"
       gradientUnits="userSpaceOnUse"
       x1="18"
       y1="56.900183"
       x2="22.999836"
       y2="56.900183" />
    <linearGradient
       inkscape:collect="always"
       xlink:href="#linearGradient3255"
       id="linearGradient3778"
       gradientUnits="userSpaceOnUse"
       x1="17.999743"
       y1="31.599964"
       x2="22.999771"
       y2="31.599964" />
    <radialGradient
       inkscape:collect="always"
       xlink:href="#linearGradient3309"
       id="radialGradient3780"
       gradientUnits="userSpaceOnUse"
       gradientTransform="matrix(1,0,0,9.1257225,0,-280.33744)"
       cx="17.291191"
       cy="34.5"
       fx="17.291191"
       fy="34.5"
       r="0.27265269" />
    <radialGradient
       inkscape:collect="always"
       xlink:href="#linearGradient3309"
       id="radialGradient3782"
       gradientUnits="userSpaceOnUse"
       gradientTransform="matrix(1,0,0,9.1257225,0,-280.33744)"
       cx="18.209539"
       cy="34.5"
       fx="18.209539"
       fy="34.5"
       r="0.27265269" />
    <radialGradient
       inkscape:collect="always"
       xlink:href="#linearGradient3309"
       id="radialGradient3784"
       gradientUnits="userSpaceOnUse"
       gradientTransform="matrix(1,0,0,9.1257225,0,-280.33744)"
       cx="19.12789"
       cy="34.5"
       fx="19.12789"
       fy="34.5"
       r="0.27265269" />
    <radialGradient
       inkscape:collect="always"
       xlink:href="#linearGradient3309"
       id="radialGradient3786"
       gradientUnits="userSpaceOnUse"
       gradientTransform="matrix(1,0,0,9.1257225,0,-280.33902)"
       cx="20.045933"
       cy="34.500195"
       fx="20.045933"
       fy="34.500195"
       r="0.27265269" />
    <radialGradient
       inkscape:collect="always"
       xlink:href="#linearGradient3309"
       id="radialGradient3788"
       gradientUnits="userSpaceOnUse"
       gradientTransform="matrix(1,0,0,9.1257225,0,-280.33902)"
       cx="20.964279"
       cy="34.500195"
       fx="20.964279"
       fy="34.500195"
       r="0.27265269" />
    <radialGradient
       inkscape:collect="always"
       xlink:href="#linearGradient3309"
       id="radialGradient3790"
       gradientUnits="userSpaceOnUse"
       gradientTransform="matrix(1,0,0,9.1257225,0,-280.33744)"
       cx="21.882629"
       cy="34.5"
       fx="21.882629"
       fy="34.5"
       r="0.27265269" />
    <radialGradient
       inkscape:collect="always"
       xlink:href="#linearGradient3309"
       id="radialGradient3792"
       gradientUnits="userSpaceOnUse"
       gradientTransform="matrix(1,0,0,9.1257225,0,-280.33744)"
       cx="22.800978"
       cy="34.5"
       fx="22.800978"
       fy="34.5"
       r="0.27265269" />
    <radialGradient
       inkscape:collect="always"
       xlink:href="#linearGradient3309"
       id="radialGradient3794"
       gradientUnits="userSpaceOnUse"
       gradientTransform="matrix(1,0,0,9.1257225,0,-280.33744)"
       cx="23.719324"
       cy="34.5"
       fx="23.719324"
       fy="34.5"
       r="0.27265269" />
  </defs>
  <sodipodi:namedview
     id="base"
     pagecolor="#ffffff"
     bordercolor="#666666"
     borderopacity="1.0"
     inkscape:pageopacity="0.0"
     inkscape:pageshadow="2"
     inkscape:zoom="2.8"
     inkscape:cx="44.416914"
     inkscape:cy="48.17962"
     inkscape:document-units="px"
     inkscape:current-layer="layer1"
     showgrid="false"
     showguides="true"
     inkscape:window-width="829"
     inkscape:window-height="718"
     inkscape:window-x="139"
     inkscape:window-y="0">
    <inkscape:grid
       type="xygrid"
       id="grid3165"
       visible="true"
       enabled="true" />
  </sodipodi:namedview>
  <metadata
     id="metadata7">
    <rdf:RDF>
      <cc:Work
         rdf:about="">
        <dc:format>image/svg+xml</dc:format>
        <dc:type
           rdf:resource="http://purl.org/dc/dcmitype/StillImage" />
      </cc:Work>
    </rdf:RDF>
  </metadata>
  <g
     inkscape:groupmode="layer"
     id="layer2"
     inkscape:label="Digitecnology LEDS">
    <text
       xml:space="preserve"
       style="font-size:64.84076691px;font-style:normal;font-variant:normal;font-weight:normal;font-stretch:normal;text-align:start;line-height:125%;writing-mode:lr-tb;text-anchor:start;fill:url(#linearGradient3696);fill-opacity:1;stroke:none;stroke-width:1px;stroke-linecap:butt;stroke-linejoin:miter;stroke-opacity:1;filter:url(#filter3927);font-family:Charaille AOE;-inkscape-font-specification:Charaille AOE"
       x="-5.4864249"
       y="26.909781"
       id="text3189"
       sodipodi:linespacing="125%"
       transform="matrix(0.891036,0,0,0.8910278,6.1136021,27.798637)"><tspan
         sodipodi:role="line"
         id="tspan3191"
         x="-5.4864249"
         y="26.909781"
         style="fill:url(#linearGradient3696);fill-opacity:1">01</tspan></text>
    <text
       xml:space="preserve"
       style="font-size:57.77544403px;font-style:normal;font-variant:normal;font-weight:normal;font-stretch:normal;text-align:start;line-height:125%;writing-mode:lr-tb;text-anchor:start;fill:url(#linearGradient3698);fill-opacity:1;stroke:none;stroke-width:1px;stroke-linecap:butt;stroke-linejoin:miter;stroke-opacity:1;font-family:Charaille AOE;-inkscape-font-specification:Charaille AOE"
       x="1.335"
       y="51.776001"
       id="text2387"
       sodipodi:linespacing="125%"><tspan
         sodipodi:role="line"
         id="tspan2389"
         x="1.335"
         y="51.776001"
         style="fill:url(#linearGradient3698);fill-opacity:1">00</tspan></text>
  </g>
  <g
     inkscape:label="RJ-45"
     inkscape:groupmode="layer"
     id="layer1">
    <g
       id="g3670"
       transform="matrix(1.9046151,0,0,1.9046151,-7.3130342,-55.351214)">
      <rect
         y="32.062241"
         x="15.0625"
         height="21.875257"
         width="10.875008"
         id="rect2383"
         style="fill:url(#linearGradient3758);fill-opacity:1;stroke:#928888;stroke-width:0.1;stroke-miterlimit:4;stroke-dasharray:none;stroke-opacity:1" />
      <rect
         y="46.062729"
         x="15.062709"
         height="7.8745441"
         width="10.874864"
         id="rect3163"
         style="fill:url(#linearGradient3760);fill-opacity:1;stroke:#928888;stroke-width:0.1;stroke-miterlimit:4;stroke-dasharray:none;stroke-opacity:1" />
      <rect
         y="48.019165"
         x="17.0625"
         height="2.9183357"
         width="6.9188204"
         id="rect3167"
         style="fill:url(#linearGradient3762);fill-opacity:1;stroke:#928888;stroke-width:0.1;stroke-miterlimit:4;stroke-dasharray:none;stroke-opacity:1" />
      <rect
         y="48.062168"
         x="17.0625"
         height="0.37533316"
         width="6.8753033"
         id="rect3169"
         style="fill:url(#linearGradient3764);fill-opacity:1;stroke:#928888;stroke-width:0.1;stroke-miterlimit:4;stroke-dasharray:none;stroke-opacity:1" />
      <rect
         y="48.462273"
         x="17.062378"
         height="0.87522757"
         width="6.8752446"
         id="rect3171"
         style="fill:url(#linearGradient3766);fill-opacity:1;stroke:#928888;stroke-width:0.1;stroke-miterlimit:4;stroke-dasharray:none;stroke-opacity:1" />
      <rect
         y="40.062405"
         x="16.0625"
         height="3.8750968"
         width="8.8751888"
         id="rect3173"
         style="fill:url(#linearGradient3768);fill-opacity:1;stroke:#928888;stroke-width:0.1;stroke-miterlimit:4;stroke-dasharray:none;stroke-opacity:1" />
      <rect
         y="36.962399"
         x="16.06245"
         height="1.8751029"
         width="8.8751202"
         id="rect3175"
         style="fill:url(#linearGradient3770);fill-opacity:1;stroke:#928888;stroke-width:0.1;stroke-miterlimit:4;stroke-dasharray:none;stroke-opacity:1" />
      <rect
         y="32.062859"
         x="17.0625"
         height="4.8746428"
         width="6.8748827"
         id="rect3177"
         style="fill:url(#linearGradient3772);fill-opacity:1;stroke:#928888;stroke-width:0.1;stroke-miterlimit:4;stroke-dasharray:none;stroke-opacity:1" />
      <rect
         y="36.962097"
         x="16.0625"
         height="0.37540326"
         width="8.8750381"
         id="rect3199"
         style="fill:url(#linearGradient3774);fill-opacity:1;stroke:#928888;stroke-width:0.1;stroke-miterlimit:4;stroke-dasharray:none;stroke-opacity:1" />
      <path
         sodipodi:nodetypes="ccccc"
         id="rect3201"
         d="M 18.0625,53.962868 L 22.937336,53.962868 L 22.937336,59.837498 C 21.353714,60.787933 19.730296,60.823057 18.0625,59.837498 L 18.0625,53.962868 z"
         style="fill:url(#linearGradient3776);fill-opacity:1;stroke:#0007ff;stroke-width:0.09970669;stroke-miterlimit:4;stroke-opacity:0.16814162" />
      <rect
         y="31.162428"
         x="18.062243"
         height="0.87507159"
         width="4.8750281"
         id="rect3227"
         style="fill:url(#linearGradient3778);fill-opacity:1;stroke:#928888;stroke-width:0.09949165;stroke-miterlimit:4;stroke-dasharray:none;stroke-opacity:1" />
      <rect
         y="32.074348"
         x="17.081039"
         height="4.8513055"
         width="0.42030537"
         id="rect3203"
         style="fill:url(#radialGradient3780);fill-opacity:1;stroke:#baca00;stroke-width:0.1;stroke-miterlimit:4;stroke-dasharray:none;stroke-opacity:1" />
      <rect
         y="32.074348"
         x="17.999388"
         height="4.8513055"
         width="0.42030537"
         id="rect3211"
         style="fill:url(#radialGradient3782);fill-opacity:1;stroke:#baca00;stroke-width:0.1;stroke-miterlimit:4;stroke-dasharray:none;stroke-opacity:1" />
      <rect
         y="32.074348"
         x="18.917736"
         height="4.8513055"
         width="0.42030537"
         id="rect3213"
         style="fill:url(#radialGradient3784);fill-opacity:1;stroke:#baca00;stroke-width:0.1;stroke-miterlimit:4;stroke-dasharray:none;stroke-opacity:1" />
      <rect
         y="32.074543"
         x="19.835779"
         height="4.8513055"
         width="0.42030537"
         id="rect3215"
         style="fill:url(#radialGradient3786);fill-opacity:1;stroke:#baca00;stroke-width:0.1;stroke-miterlimit:4;stroke-dasharray:none;stroke-opacity:1" />
      <rect
         y="32.074543"
         x="20.754128"
         height="4.8513055"
         width="0.42030537"
         id="rect3217"
         style="fill:url(#radialGradient3788);fill-opacity:1;stroke:#baca00;stroke-width:0.1;stroke-miterlimit:4;stroke-dasharray:none;stroke-opacity:1" />
      <rect
         y="32.074348"
         x="21.672476"
         height="4.8513055"
         width="0.42030537"
         id="rect3219"
         style="fill:url(#radialGradient3790);fill-opacity:1;stroke:#baca00;stroke-width:0.1;stroke-miterlimit:4;stroke-dasharray:none;stroke-opacity:1" />
      <rect
         y="32.074348"
         x="22.590824"
         height="4.8513055"
         width="0.42030537"
         id="rect3221"
         style="fill:url(#radialGradient3792);fill-opacity:1;stroke:#baca00;stroke-width:0.1;stroke-miterlimit:4;stroke-dasharray:none;stroke-opacity:1" />
      <rect
         y="32.074348"
         x="23.509172"
         height="4.8513055"
         width="0.42030537"
         id="rect3223"
         style="fill:url(#radialGradient3794);fill-opacity:1;stroke:#baca00;stroke-width:0.1;stroke-miterlimit:4;stroke-dasharray:none;stroke-opacity:1" />
    </g>
  </g>
</svg>
